/* interface file for SWIG */


%module fibo
%{
#include "fibo.hpp"
%}

/* simple! */
%include "fibo.hpp"

/* long and comprehensive: if you want to expose only part of the c++ API*/
/*namespace mate
{
class Fibo
{
public:
    Fibo(int cur=0);
    int next();
private:
    int a, b;
};
void printUntil(int num);
}*/

